INDEX VERSION 1.130+C:\Users\USER\Documents\KrakenRepositoryIPS\ips2019-pl4-41\.metadata\.plugins\org.eclipse.jdt.core
1943575548.index
202638269.index
1196250124.index
144380394.index
3227056335.index
571797158.index
3796575808.index
3984942406.index
4212195811.index
531533494.index
1845031563.index
136923336.index
1401678300.index
1860485910.index
1348741395.index
3263897811.index
897659091.index
3421597620.index
1233919542.index
2899478204.index
2592620743.index
1942359185.index
3852737441.index
2492909726.index
2374417091.index
1241298325.index
